Season,Ep. 1,Ep. 2,Ep. 3,Ep. 4,Ep. 5,Ep. 6,Ep. 7,Ep. 8,Ep. 9,Ep. 10,Average
1,2.22,2.20,2.44,2.45,2.58,2.44,2.40,2.72,2.66,3.04,2.52
2,3.86,3.76,3.77,3.65,3.90,3.88,3.69,3.86,3.38,4.20,3.80
3,4.37,4.27,4.72,4.87,5.35,5.50,4.84,5.13,5.22,5.39,4.97
4,6.64,6.31,6.59,6.95,7.16,6.40,7.20,7.17,6.95,7.09,6.84
5,8.00,6.81,6.71,6.82,6.56,6.24,5.40,7.01,7.14,8.11,6.88
6,7.94,7.29,7.28,7.82,7.89,6.71,7.80,7.60,7.66,8.89,7.69
7,TBD,TBD,TBD,TBD,TBD,TBD,TBD,N/A,TBD
